Preliminary Data Cleaning for Healthcare Data Analysis App
…
Bind and clean World Bank data

cleaned_health_parameters |> 
  bind_rows(cleaned_development_indicators) |> 
  bind_rows(cleaned_education_indicators) |> 
  bind_rows(cleaned_weight_indicators) |> 
  bind_rows(cleaned_life_exp) -> wb_data

Remove false parameters

wb_data |> 
  distinct(`Series Name`)

# A tibble: 41 × 1
   `Series Name`                                                                
   <chr>                                                                        
 1 Domestic private health expenditure per capita, PPP  (current international …
 2 Domestic general government health expenditure per capita, PPP (current inte…
 3 External health expenditure per capita, PPP (current international $)        
 4 Diabetes prevalence (% of population ages 20 to 79)                          
 5 Mortality from CVD, cancer, diabetes or CRD between exact ages 30 and 70 (%) 
 6 Mortality rate, infant (per 1,000 live births)                               
 7 Mortality rate, under-5 (per 1,000)                                          
 8 Population, total                                                            
 9 Population, male                                                             
10 Population, female                                                           
# ℹ 31 more rows
…
